<?xml version="1.0" encoding="UTF-8" standalone="no"?>
<svg width="24px" height="24px" viewBox="0 0 24 24" version="1.1" xmlns="http://www.w3.org/2000/svg" xmlns:xlink="http://www.w3.org/1999/xlink">
    <!-- Generator: Sketch 3.8.3 (29802) - http://www.bohemiancoding.com/sketch -->
    <title>arrow-right</title>
    <desc>Created with Sketch.</desc>
    <defs></defs>
    <g id="assets-svg-ready-1px" stroke="none" stroke-width="1" fill="none" fill-rule="evenodd">
        <g id="arrow-right" fill="#cfd2da">
            <polygon id="Page-1" points="9.64799958 6.6500001 8.93999958 7.3560001 9.29299958 7.7110001 13.6469996 12.0630001 9.29299958 16.4170001 8.93999958 16.7700001 9.64799958 17.4780001 10.0009996 17.1250001 14.3999996 12.7250001 15.0609996 12.0630001 14.7079996 11.7100001 10.0009996 7.0030001"></polygon>
        </g>
    </g>
</svg>
